<svg id="Group_626" data-name="Group 626" xmlns="http://www.w3.org/2000/svg" width="69.778" height="69.778" viewBox="0 0 69.778 69.778">
  <g id="Group_624" data-name="Group 624" transform="translate(0 0)">
    <g id="Group_608" data-name="Group 608" transform="translate(0 3.489)">
      <path id="Path_738" data-name="Path 738" d="M55.541,40V50.909A24.429,24.429,0,0,0,28.956,85.635v.012a4.427,4.427,0,0,0-.163,1.186V99.312H25.967l-3.035-3.047,2.1-3.559a31.319,31.319,0,0,1-5.024-12.13L16,79.541v-9.3L20.012,69.2a31.319,31.319,0,0,1,5.024-12.13l-2.1-3.559,6.582-6.582,3.559,2.1A31.319,31.319,0,0,1,45.2,44.012L46.237,40Z" transform="translate(-16 -40)" fill="#fcd770"/>
    </g>
    <g id="Group_609" data-name="Group 609" transform="translate(50.589 25.585)">
      <path id="Path_739" data-name="Path 739" d="M383.189,200.141v9.3l-4.012,1.035a31.319,31.319,0,0,1-5.024,12.13l2.1,3.559-3.035,3.047h-8.641L364,224.563h6.4a2.333,2.333,0,0,0,2.326-2.326v-11.63a2.38,2.38,0,0,0-.407-1.326,24.785,24.785,0,0,0,.407-4.489A24.333,24.333,0,0,0,369.105,192h7.873a31.135,31.135,0,0,1,2.2,7.106Z" transform="translate(-364 -192)" fill="#fcd770"/>
    </g>
    <g id="Group_610" data-name="Group 610" transform="translate(0 62.8)">
      <path id="Path_740" data-name="Path 740" d="M85.778,452.652v2.326H16v-2.326A4.651,4.651,0,0,1,20.652,448H81.126A4.651,4.651,0,0,1,85.778,452.652Z" transform="translate(-16 -448)" fill="#969faa"/>
    </g>
    <g id="Group_611" data-name="Group 611" transform="translate(12.793 45.088)">
      <path id="Path_741" data-name="Path 741" d="M129.585,339.22v4.652H104V331.393a4.426,4.426,0,0,1,.163-1.186V330.2a4.645,4.645,0,0,1,3.57-3.361l3.361-.675,1.047,7.245,4.652-3.489,4.652,3.489,1.047-7.245,3.361.675a4.764,4.764,0,0,1,1.407.535v9.525A2.333,2.333,0,0,0,129.585,339.22Z" transform="translate(-104 -326.16)" fill="#ff826e"/>
    </g>
    <g id="Group_612" data-name="Group 612" transform="translate(25.585 44.286)">
      <path id="Path_742" data-name="Path 742" d="M196.861,321.269l.837.174-1.047,7.245L192,325.2l3.64-4.559a3.48,3.48,0,0,0,1.221.628Z" transform="translate(-192 -320.641)" fill="#fc6e51"/>
    </g>
    <g id="Group_613" data-name="Group 613" transform="translate(19.887 44.286)">
      <path id="Path_743" data-name="Path 743" d="M154.858,320.641l3.64,4.559-4.652,3.489-1.047-7.245.837-.174a3.48,3.48,0,0,0,1.221-.628Z" transform="translate(-152.8 -320.641)" fill="#fc6e51"/>
    </g>
    <g id="Group_614" data-name="Group 614" transform="translate(16.282 25.585)">
      <path id="Path_744" data-name="Path 744" d="M146.608,197.7a4,4,0,0,1-.035.535,4.1,4.1,0,0,1-1.407,2.524l-.93.837a2.249,2.249,0,0,0-1.116-.291h-3.21a11.018,11.018,0,0,1-4.931-1.163,2.321,2.321,0,0,0-2.012,1.163h-1.477a2.249,2.249,0,0,0-1.116.291l-.93-.837a4.1,4.1,0,0,1-1.407-2.524A4,4,0,0,1,128,197.7a4.423,4.423,0,0,1,1.768-3.535l1.8-1.349A4,4,0,0,1,134,192h.465a4.053,4.053,0,0,1,2.838,1.163A4.053,4.053,0,0,1,140.141,192h.465a4,4,0,0,1,2.431.814l1.8,1.349A4.423,4.423,0,0,1,146.608,197.7Z" transform="translate(-128 -192)" fill="#656d78"/>
    </g>
    <g id="Group_615" data-name="Group 615" transform="translate(30.086 34.889)">
      <path id="Path_745" data-name="Path 745" d="M225.914,256.686a2.274,2.274,0,0,1,.686,1.64,2.333,2.333,0,0,1-2.326,2.326H222.96a4.253,4.253,0,0,0,.151-1.163V256h1.163a2.249,2.249,0,0,1,1.116.291A1.941,1.941,0,0,1,225.914,256.686Z" transform="translate(-222.96 -256)" fill="#f0d0b4"/>
    </g>
    <g id="Group_616" data-name="Group 616" transform="translate(21.945 42.344)">
      <path id="Path_746" data-name="Path 746" d="M174.24,309.222l-3.64,4.559-3.64-4.559a3.426,3.426,0,0,0,1.221-1.931v-.011a4.607,4.607,0,0,0,4.838,0v.011A3.426,3.426,0,0,0,174.24,309.222Z" transform="translate(-166.96 -307.28)" fill="#f0d0b4"/>
    </g>
    <g id="Group_617" data-name="Group 617" transform="translate(20.933 33.726)">
      <path id="Path_747" data-name="Path 747" d="M169.153,253.815a4.6,4.6,0,0,1-2.082,2.8,4.607,4.607,0,0,1-4.838,0,4.865,4.865,0,0,1-.872-.674,4.743,4.743,0,0,1-1.209-2.128,4.253,4.253,0,0,1-.151-1.163v-2.326A2.332,2.332,0,0,1,162.326,248a11.018,11.018,0,0,0,4.931,1.163H169.3v3.489A4.253,4.253,0,0,1,169.153,253.815Z" transform="translate(-160 -248)" fill="#f0d0b4"/>
    </g>
    <g id="Group_618" data-name="Group 618" transform="translate(17.445 34.889)">
      <path id="Path_748" data-name="Path 748" d="M138.326,256H139.8a2.32,2.32,0,0,0-.314,1.163v2.326a4.253,4.253,0,0,0,.151,1.163h-1.314A2.343,2.343,0,0,1,136,258.326a2.325,2.325,0,0,1,1.209-2.035A2.249,2.249,0,0,1,138.326,256Z" transform="translate(-136 -256)" fill="#f0d0b4"/>
    </g>
    <g id="Group_619" data-name="Group 619" transform="translate(36.052 41.867)">
      <path id="Path_749" data-name="Path 749" d="M287.259,306.326v11.63a2.333,2.333,0,0,1-2.326,2.326h-6.4l-.581-4.652H273.3l-.581,4.652h-6.4A2.333,2.333,0,0,1,264,317.956v-11.63A2.333,2.333,0,0,1,266.326,304h18.608a2.352,2.352,0,0,1,1.919,1A2.38,2.38,0,0,1,287.259,306.326Z" transform="translate(-264 -304)" fill="#ccd1d9"/>
    </g>
    <g id="Group_620" data-name="Group 620" transform="translate(44.193 53.497)">
      <path id="Path_750" data-name="Path 750" d="M326.4,388.652l.582,4.652H320l.581-4.652.581-4.652h4.652Z" transform="translate(-320 -384)" fill="#aab2bd"/>
    </g>
    <g id="Group_621" data-name="Group 621" transform="translate(39.541)">
      <path id="Path_751" data-name="Path 751" d="M318.237,18.326V39.259a2.333,2.333,0,0,1-2.326,2.326h-2.326V40.422a10.468,10.468,0,0,0-10.467-10.467,4.652,4.652,0,1,0-4.652-4.652,4.651,4.651,0,0,0,4.652,4.652,10.483,10.483,0,0,0-10.467,10.467v1.163h-2.326A2.333,2.333,0,0,1,288,39.259V18.326A2.333,2.333,0,0,1,290.326,16h25.585A2.333,2.333,0,0,1,318.237,18.326Z" transform="translate(-288 -16)" fill="#e6e9ed"/>
    </g>
    <g id="Group_622" data-name="Group 622" transform="translate(44.193 13.956)">
      <path id="Path_752" data-name="Path 752" d="M340.933,122.467v1.163H329.3l-4.652,4.652h-2.326V123.63H320v-1.163a10.467,10.467,0,1,1,20.933,0Z" transform="translate(-320 -112)" fill="#b4dd7f"/>
    </g>
    <g id="Group_623" data-name="Group 623" transform="translate(50.045 4.579)">
      <ellipse id="Ellipse_38" data-name="Ellipse 38" cx="4.573" cy="4.703" rx="4.573" ry="4.703" transform="translate(0 0)" fill="#f0d0b4"/>
    </g>
  </g>
  <g id="Group_625" data-name="Group 625" transform="translate(24.422 52.334)">
    <path id="Path_753" data-name="Path 753" d="M184,376h2.326v2.326H184Z" transform="translate(-184 -376)"/>
    <path id="Path_754" data-name="Path 754" d="M184,408h2.326v2.326H184Z" transform="translate(-184 -403.348)"/>
  </g>
</svg>
